EESchema Schematic File Version 4
LIBS:dropmeter-cache
EELAYER 26 0
EELAYER END
$Descr A4 11693 8268
encoding utf-8
Sheet 1 1
Title ""
Date ""
Rev ""
Comp ""
Comment1 ""
Comment2 ""
Comment3 ""
Comment4 ""
$EndDescr
$Comp
L Device:D_Photo D1
U 1 1 5BAAAD6E
P 2950 1750
F 0 "D1" H 2900 1950 50  0000 C CNN
F 1 "VEMD2020" H 2900 1650 50  0000 C CNN
F 2 "dropmeter_footprints:D_1206" H 2900 1750 50  0001 C CNN
F 3 "~" H 2900 1750 50  0001 C CNN
	1    2950 1750
	1    0    0    -1  
$EndComp
$Comp
L power:+5V #PWR0101
U 1 1 5BAAB1AB
P 2500 1550
F 0 "#PWR0101" H 2500 1400 50  0001 C CNN
F 1 "+5V" H 2515 1723 50  0000 C CNN
F 2 "" H 2500 1550 50  0001 C CNN
F 3 "" H 2500 1550 50  0001 C CNN
	1    2500 1550
	1    0    0    -1  
$EndComp
Wire Wire Line
	2500 1550 2500 1750
Wire Wire Line
	2500 1750 2750 1750
$Comp
L Device:D_Photo D2
U 1 1 5BAAB3EB
P 2950 2200
F 0 "D2" H 2900 2400 50  0000 C CNN
F 1 "VEMD2020" H 2900 2100 50  0000 C CNN
F 2 "dropmeter_footprints:D_1206" H 2900 2200 50  0001 C CNN
F 3 "~" H 2900 2200 50  0001 C CNN
	1    2950 2200
	1    0    0    -1  
$EndComp
Wire Wire Line
	2500 2200 2750 2200
$Comp
L Device:D_Photo D3
U 1 1 5BAAB466
P 2950 2650
F 0 "D3" H 2900 2850 50  0000 C CNN
F 1 "VEMD2020" H 2900 2550 50  0000 C CNN
F 2 "dropmeter_footprints:D_1206" H 2900 2650 50  0001 C CNN
F 3 "~" H 2900 2650 50  0001 C CNN
	1    2950 2650
	1    0    0    -1  
$EndComp
Wire Wire Line
	2500 2650 2750 2650
$Comp
L Device:D_Photo D4
U 1 1 5BAAB679
P 2950 3100
F 0 "D4" H 2900 3300 50  0000 C CNN
F 1 "VEMD2020" H 2900 3000 50  0000 C CNN
F 2 "dropmeter_footprints:D_1206" H 2900 3100 50  0001 C CNN
F 3 "~" H 2900 3100 50  0001 C CNN
	1    2950 3100
	1    0    0    -1  
$EndComp
Wire Wire Line
	2500 3100 2750 3100
$Comp
L Device:D_Photo D5
U 1 1 5BAAB93A
P 2950 3550
F 0 "D5" H 2900 3750 50  0000 C CNN
F 1 "VEMD2020" H 2900 3450 50  0000 C CNN
F 2 "dropmeter_footprints:D_1206" H 2900 3550 50  0001 C CNN
F 3 "~" H 2900 3550 50  0001 C CNN
	1    2950 3550
	1    0    0    -1  
$EndComp
Wire Wire Line
	2500 3550 2750 3550
$Comp
L Device:D_Photo D6
U 1 1 5BAAB94B
P 2950 4000
F 0 "D6" H 2900 4200 50  0000 C CNN
F 1 "VEMD2020" H 2900 3900 50  0000 C CNN
F 2 "dropmeter_footprints:D_1206" H 2900 4000 50  0001 C CNN
F 3 "~" H 2900 4000 50  0001 C CNN
	1    2950 4000
	1    0    0    -1  
$EndComp
Wire Wire Line
	2500 4000 2750 4000
$Comp
L Device:D_Photo D7
U 1 1 5BAAB95C
P 2950 4450
F 0 "D7" H 2900 4650 50  0000 C CNN
F 1 "VEMD2020" H 2900 4350 50  0000 C CNN
F 2 "dropmeter_footprints:D_1206" H 2900 4450 50  0001 C CNN
F 3 "~" H 2900 4450 50  0001 C CNN
	1    2950 4450
	1    0    0    -1  
$EndComp
Wire Wire Line
	2500 4450 2750 4450
$Comp
L Device:D_Photo D8
U 1 1 5BAAB96D
P 2950 4900
F 0 "D8" H 2900 5100 50  0000 C CNN
F 1 "VEMD2020" H 2900 4800 50  0000 C CNN
F 2 "dropmeter_footprints:D_1206" H 2900 4900 50  0001 C CNN
F 3 "~" H 2900 4900 50  0001 C CNN
	1    2950 4900
	1    0    0    -1  
$EndComp
Wire Wire Line
	2500 4900 2750 4900
Wire Wire Line
	2500 1750 2500 2200
Connection ~ 2500 1750
Connection ~ 2500 2200
Wire Wire Line
	2500 2200 2500 2650
Connection ~ 2500 2650
Wire Wire Line
	2500 2650 2500 3100
Connection ~ 2500 3100
Wire Wire Line
	2500 3100 2500 3550
Connection ~ 2500 3550
Wire Wire Line
	2500 3550 2500 4000
Connection ~ 2500 4000
Wire Wire Line
	2500 4000 2500 4450
Connection ~ 2500 4450
Wire Wire Line
	2500 4450 2500 4900
Text Label 7400 2900 2    50   ~ 0
DO1
Text Label 7400 3000 2    50   ~ 0
DO2
Text Label 7400 3100 2    50   ~ 0
DO3
Text Label 7400 3200 2    50   ~ 0
DO4
Text Label 7400 3300 2    50   ~ 0
DO5
Text Label 7400 3400 2    50   ~ 0
DO6
Text Label 7400 3500 2    50   ~ 0
DO7
Text Label 7400 3600 2    50   ~ 0
DO8
Wire Wire Line
	4500 3100 5350 3100
Wire Wire Line
	4500 3200 5350 3200
Wire Wire Line
	4500 3300 5350 3300
Wire Wire Line
	4500 3500 4650 3500
$Comp
L power:+5V #PWR0103
U 1 1 5BB0C78B
P 4200 2400
F 0 "#PWR0103" H 4200 2250 50  0001 C CNN
F 1 "+5V" H 4215 2573 50  0000 C CNN
F 2 "" H 4200 2400 50  0001 C CNN
F 3 "" H 4200 2400 50  0001 C CNN
	1    4200 2400
	1    0    0    -1  
$EndComp
Text Label 5200 3100 2    50   ~ 0
S1
Text Label 5200 3200 2    50   ~ 0
S2
Text Label 5200 3300 2    50   ~ 0
S3
Text Label 5200 3500 2    50   ~ 0
~ENA
$Comp
L power:+5V #PWR0105
U 1 1 5BB1638C
P 6150 1550
F 0 "#PWR0105" H 6150 1400 50  0001 C CNN
F 1 "+5V" H 6165 1723 50  0000 C CNN
F 2 "" H 6150 1550 50  0001 C CNN
F 3 "" H 6150 1550 50  0001 C CNN
	1    6150 1550
	1    0    0    -1  
$EndComp
Wire Wire Line
	6150 1550 6150 1750
Wire Wire Line
	6150 1750 6400 1750
Wire Wire Line
	6150 2200 6400 2200
Wire Wire Line
	6150 2650 6400 2650
Wire Wire Line
	6150 3100 6400 3100
Wire Wire Line
	6150 3550 6400 3550
Wire Wire Line
	6150 4000 6400 4000
Wire Wire Line
	6150 4450 6400 4450
Wire Wire Line
	6150 4900 6400 4900
Wire Wire Line
	6150 1750 6150 2200
Connection ~ 6150 1750
Connection ~ 6150 2200
Wire Wire Line
	6150 2200 6150 2650
Connection ~ 6150 2650
Wire Wire Line
	6150 2650 6150 3100
Connection ~ 6150 3100
Wire Wire Line
	6150 3100 6150 3550
Connection ~ 6150 3550
Wire Wire Line
	6150 3550 6150 4000
Connection ~ 6150 4000
Wire Wire Line
	6150 4000 6150 4450
Connection ~ 6150 4450
Wire Wire Line
	6150 4450 6150 4900
$Comp
L LED:SFH4346 D9
U 1 1 5BB20A31
P 6500 1750
F 0 "D9" H 6450 2040 50  0000 C CNN
F 1 "VSMS3700" H 6450 1949 50  0000 C CNN
F 2 "dropmeter_footprints:LED_PLCC-2" H 6500 1925 50  0001 C CNN
F 3 "http://cdn-reichelt.de/documents/datenblatt/A500/SFH4346.pdf" H 6450 1750 50  0001 C CNN
	1    6500 1750
	-1   0    0    -1  
$EndComp
$Comp
L LED:SFH4346 D10
U 1 1 5BB2B419
P 6500 2200
F 0 "D10" H 6450 2490 50  0000 C CNN
F 1 "VSMS3700" H 6450 2399 50  0000 C CNN
F 2 "dropmeter_footprints:LED_PLCC-2" H 6500 2375 50  0001 C CNN
F 3 "http://cdn-reichelt.de/documents/datenblatt/A500/SFH4346.pdf" H 6450 2200 50  0001 C CNN
	1    6500 2200
	-1   0    0    -1  
$EndComp
$Comp
L LED:SFH4346 D11
U 1 1 5BB30898
P 6500 2650
F 0 "D11" H 6450 2940 50  0000 C CNN
F 1 "VSMS3700" H 6450 2849 50  0000 C CNN
F 2 "dropmeter_footprints:LED_PLCC-2" H 6500 2825 50  0001 C CNN
F 3 "http://cdn-reichelt.de/documents/datenblatt/A500/SFH4346.pdf" H 6450 2650 50  0001 C CNN
	1    6500 2650
	-1   0    0    -1  
$EndComp
$Comp
L LED:SFH4346 D12
U 1 1 5BB35D18
P 6500 3100
F 0 "D12" H 6450 3390 50  0000 C CNN
F 1 "VSMS3700" H 6450 3299 50  0000 C CNN
F 2 "dropmeter_footprints:LED_PLCC-2" H 6500 3275 50  0001 C CNN
F 3 "http://cdn-reichelt.de/documents/datenblatt/A500/SFH4346.pdf" H 6450 3100 50  0001 C CNN
	1    6500 3100
	-1   0    0    -1  
$EndComp
$Comp
L LED:SFH4346 D13
U 1 1 5BB3B198
P 6500 3550
F 0 "D13" H 6450 3840 50  0000 C CNN
F 1 "VSMS3700" H 6450 3749 50  0000 C CNN
F 2 "dropmeter_footprints:LED_PLCC-2" H 6500 3725 50  0001 C CNN
F 3 "http://cdn-reichelt.de/documents/datenblatt/A500/SFH4346.pdf" H 6450 3550 50  0001 C CNN
	1    6500 3550
	-1   0    0    -1  
$EndComp
$Comp
L LED:SFH4346 D14
U 1 1 5BB4061C
P 6500 4000
F 0 "D14" H 6450 4290 50  0000 C CNN
F 1 "VSMS3700" H 6450 4199 50  0000 C CNN
F 2 "dropmeter_footprints:LED_PLCC-2" H 6500 4175 50  0001 C CNN
F 3 "http://cdn-reichelt.de/documents/datenblatt/A500/SFH4346.pdf" H 6450 4000 50  0001 C CNN
	1    6500 4000
	-1   0    0    -1  
$EndComp
$Comp
L LED:SFH4346 D15
U 1 1 5BB45AA2
P 6500 4450
F 0 "D15" H 6450 4740 50  0000 C CNN
F 1 "VSMS3700" H 6450 4649 50  0000 C CNN
F 2 "dropmeter_footprints:LED_PLCC-2" H 6500 4625 50  0001 C CNN
F 3 "http://cdn-reichelt.de/documents/datenblatt/A500/SFH4346.pdf" H 6450 4450 50  0001 C CNN
	1    6500 4450
	-1   0    0    -1  
$EndComp
$Comp
L LED:SFH4346 D16
U 1 1 5BB4AF28
P 6500 4900
F 0 "D16" H 6450 5190 50  0000 C CNN
F 1 "VSMS3700" H 6450 5099 50  0000 C CNN
F 2 "dropmeter_footprints:LED_PLCC-2" H 6500 5075 50  0001 C CNN
F 3 "http://cdn-reichelt.de/documents/datenblatt/A500/SFH4346.pdf" H 6450 4900 50  0001 C CNN
	1    6500 4900
	-1   0    0    -1  
$EndComp
$Comp
L Device:R R1
U 1 1 5BBB0B7F
P 4750 2150
F 0 "R1" V 4650 2150 50  0000 C CNN
F 1 "100k" V 4850 2150 50  0000 C CNN
F 2 "Resistor_SMD:R_0805_2012Metric_Pad1.15x1.40mm_HandSolder" V 4680 2150 50  0001 C CNN
F 3 "~" H 4750 2150 50  0001 C CNN
	1    4750 2150
	1    0    0    1   
$EndComp
Wire Wire Line
	4750 2000 4750 1700
Wire Wire Line
	4750 1700 4950 1700
Wire Wire Line
	4950 1700 4950 1800
$Comp
L power:GND #PWR0102
U 1 1 5BBC9658
P 4950 1800
F 0 "#PWR0102" H 4950 1550 50  0001 C CNN
F 1 "GND" H 4950 1650 50  0001 C CNN
F 2 "" H 4950 1800 50  0001 C CNN
F 3 "~" H 4950 1800 50  0001 C CNN
	1    4950 1800
	-1   0    0    -1  
$EndComp
Text Label 5200 2900 2    50   ~ 0
V1
Wire Wire Line
	4200 2700 4200 2600
Wire Wire Line
	4500 2900 4750 2900
Wire Wire Line
	4750 2300 4750 2900
Connection ~ 4750 2900
Wire Wire Line
	4750 2900 5350 2900
Wire Wire Line
	4200 2600 4950 2600
Connection ~ 4200 2600
Wire Wire Line
	4200 2600 4200 2400
$Comp
L Device:R R2
U 1 1 5BBF9E2C
P 4800 3700
F 0 "R2" V 4700 3700 50  0000 C CNN
F 1 "10k" V 4900 3700 50  0000 C CNN
F 2 "Resistor_SMD:R_0805_2012Metric_Pad1.15x1.40mm_HandSolder" V 4730 3700 50  0001 C CNN
F 3 "~" H 4800 3700 50  0001 C CNN
	1    4800 3700
	0    -1   1    0   
$EndComp
Wire Wire Line
	4650 3700 4650 3500
Connection ~ 4650 3500
Wire Wire Line
	4650 3500 5350 3500
Wire Wire Line
	4950 3700 4950 2600
$Comp
L power:GND #PWR0106
U 1 1 5BC084C1
P 4200 4100
F 0 "#PWR0106" H 4200 3850 50  0001 C CNN
F 1 "GND" H 4200 3950 50  0001 C CNN
F 2 "" H 4200 4100 50  0001 C CNN
F 3 "~" H 4200 4100 50  0001 C CNN
	1    4200 4100
	-1   0    0    -1  
$EndComp
$Comp
L Device:R R3
U 1 1 5BC3B839
P 8450 2150
F 0 "R3" V 8350 2150 50  0000 C CNN
F 1 "1k" V 8550 2150 50  0000 C CNN
F 2 "Resistor_SMD:R_0805_2012Metric_Pad1.15x1.40mm_HandSolder" V 8380 2150 50  0001 C CNN
F 3 "~" H 8450 2150 50  0001 C CNN
	1    8450 2150
	-1   0    0    1   
$EndComp
Wire Wire Line
	8450 2000 8450 1700
Wire Wire Line
	8450 1700 8250 1700
Wire Wire Line
	8250 1700 8250 1800
$Comp
L power:GND #PWR0107
U 1 1 5BC3DD4F
P 8250 1800
F 0 "#PWR0107" H 8250 1550 50  0001 C CNN
F 1 "GND" H 8250 1650 50  0001 C CNN
F 2 "" H 8250 1800 50  0001 C CNN
F 3 "~" H 8250 1800 50  0001 C CNN
	1    8250 1800
	1    0    0    -1  
$EndComp
Wire Wire Line
	7300 3600 7450 3600
Wire Wire Line
	7300 3500 7450 3500
Wire Wire Line
	7300 3400 7450 3400
Wire Wire Line
	7300 3300 7450 3300
Wire Wire Line
	7300 3200 7450 3200
Wire Wire Line
	7300 3100 7450 3100
Wire Wire Line
	7300 3000 7450 3000
Wire Wire Line
	7300 2900 7450 2900
Wire Wire Line
	6700 1750 6850 1750
Entry Wire Line
	6950 1850 6850 1750
Wire Wire Line
	6700 2200 6850 2200
Entry Wire Line
	6950 2300 6850 2200
Wire Wire Line
	6700 2650 6850 2650
Entry Wire Line
	6950 2750 6850 2650
Wire Wire Line
	6700 3100 6850 3100
Entry Wire Line
	6950 3200 6850 3100
Wire Wire Line
	6700 3550 6850 3550
Entry Wire Line
	6950 3650 6850 3550
Wire Wire Line
	6700 4000 6850 4000
Entry Wire Line
	6950 4100 6850 4000
Wire Wire Line
	6700 4450 6850 4450
Entry Wire Line
	6950 4550 6850 4450
Wire Wire Line
	6700 4900 6850 4900
Entry Wire Line
	6950 5000 6850 4900
Text Label 6750 1750 0    50   ~ 0
DO1
Text Label 6750 2200 0    50   ~ 0
DO2
Text Label 6750 2650 0    50   ~ 0
DO3
Text Label 6750 3100 0    50   ~ 0
DO4
Text Label 6750 3550 0    50   ~ 0
DO5
Text Label 6750 4000 0    50   ~ 0
DO6
Text Label 6750 4450 0    50   ~ 0
DO7
Text Label 6750 4900 0    50   ~ 0
DO8
Entry Wire Line
	7300 2900 7200 3000
Entry Wire Line
	7300 3000 7200 3100
Entry Wire Line
	7300 3100 7200 3200
Entry Wire Line
	7300 3200 7200 3300
Entry Wire Line
	7300 3300 7200 3400
Entry Wire Line
	7300 3400 7200 3500
Entry Wire Line
	7300 3500 7200 3600
Entry Wire Line
	7300 3600 7200 3700
Wire Bus Line
	7200 5150 6950 5150
Wire Wire Line
	8150 3100 9000 3100
Wire Wire Line
	8150 3200 9000 3200
Wire Wire Line
	8150 3300 9000 3300
$Comp
L power:+5V #PWR0104
U 1 1 5BCE5184
P 7850 2400
F 0 "#PWR0104" H 7850 2250 50  0001 C CNN
F 1 "+5V" H 7865 2573 50  0000 C CNN
F 2 "" H 7850 2400 50  0001 C CNN
F 3 "" H 7850 2400 50  0001 C CNN
	1    7850 2400
	1    0    0    -1  
$EndComp
Text Label 8850 3100 2    50   ~ 0
S1
Text Label 8850 3200 2    50   ~ 0
S2
Text Label 8850 3300 2    50   ~ 0
S3
Text Label 8850 3500 2    50   ~ 0
~ENA
$Comp
L power:GND #PWR0108
U 1 1 5BCE51B6
P 7850 4100
F 0 "#PWR0108" H 7850 3850 50  0001 C CNN
F 1 "GND" H 7850 3950 50  0001 C CNN
F 2 "" H 7850 4100 50  0001 C CNN
F 3 "~" H 7850 4100 50  0001 C CNN
	1    7850 4100
	-1   0    0    -1  
$EndComp
Wire Wire Line
	8150 2900 8450 2900
Text Label 3750 2900 2    50   ~ 0
O1
Text Label 3750 3000 2    50   ~ 0
O2
Text Label 3750 3100 2    50   ~ 0
O3
Text Label 3750 3200 2    50   ~ 0
O4
Text Label 3750 3300 2    50   ~ 0
O5
Text Label 3750 3400 2    50   ~ 0
O6
Text Label 3750 3500 2    50   ~ 0
O7
Text Label 3750 3600 2    50   ~ 0
O8
Wire Wire Line
	3650 3600 3800 3600
Wire Wire Line
	3650 3500 3800 3500
Wire Wire Line
	3650 3400 3800 3400
Wire Wire Line
	3650 3300 3800 3300
Wire Wire Line
	3650 3200 3800 3200
Wire Wire Line
	3650 3100 3800 3100
Wire Wire Line
	3650 3000 3800 3000
Wire Wire Line
	3650 2900 3800 2900
Wire Wire Line
	3050 1750 3200 1750
Entry Wire Line
	3300 1850 3200 1750
Wire Wire Line
	3050 2200 3200 2200
Entry Wire Line
	3300 2300 3200 2200
Wire Wire Line
	3050 2650 3200 2650
Entry Wire Line
	3300 2750 3200 2650
Wire Wire Line
	3050 3100 3200 3100
Entry Wire Line
	3300 3200 3200 3100
Wire Wire Line
	3050 3550 3200 3550
Entry Wire Line
	3300 3650 3200 3550
Wire Wire Line
	3050 4000 3200 4000
Entry Wire Line
	3300 4100 3200 4000
Wire Wire Line
	3050 4450 3200 4450
Entry Wire Line
	3300 4550 3200 4450
Wire Wire Line
	3050 4900 3200 4900
Entry Wire Line
	3300 5000 3200 4900
Text Label 3100 1750 0    50   ~ 0
O1
Text Label 3100 2200 0    50   ~ 0
O2
Text Label 3100 2650 0    50   ~ 0
O3
Text Label 3100 3100 0    50   ~ 0
O4
Text Label 3100 3550 0    50   ~ 0
O5
Text Label 3100 4000 0    50   ~ 0
O6
Text Label 3100 4450 0    50   ~ 0
O7
Text Label 3100 4900 0    50   ~ 0
O8
Entry Wire Line
	3650 2900 3550 3000
Entry Wire Line
	3650 3000 3550 3100
Entry Wire Line
	3650 3100 3550 3200
Entry Wire Line
	3650 3200 3550 3300
Entry Wire Line
	3650 3300 3550 3400
Entry Wire Line
	3650 3400 3550 3500
Entry Wire Line
	3650 3500 3550 3600
Entry Wire Line
	3650 3600 3550 3700
Wire Bus Line
	3550 5150 3300 5150
Wire Wire Line
	8450 2300 8450 2900
$Comp
L Connector_Generic:Conn_01x08 J1
U 1 1 5BD45D24
P 4900 5100
F 0 "J1" H 4980 5092 50  0000 L CNN
F 1 "Conn_01x08" H 4980 5001 50  0000 L CNN
F 2 "Connector_PinHeader_2.54mm:PinHeader_1x08_P2.54mm_Vertical" H 4900 5100 50  0001 C CNN
F 3 "~" H 4900 5100 50  0001 C CNN
	1    4900 5100
	1    0    0    -1  
$EndComp
Text GLabel 4400 4800 0    50   Input ~ 0
+5V
Text GLabel 4400 4900 0    50   Input ~ 0
GND
Text GLabel 4400 5000 0    50   Input ~ 0
S1
Text GLabel 4400 5100 0    50   Input ~ 0
S2
Text GLabel 4400 5200 0    50   Input ~ 0
S3
Text GLabel 4400 5300 0    50   Input ~ 0
~ENA
Text GLabel 4400 5400 0    50   Input ~ 0
V1
Wire Wire Line
	4700 4800 4400 4800
Wire Wire Line
	4700 4900 4400 4900
Wire Wire Line
	4700 5000 4400 5000
Wire Wire Line
	4700 5100 4400 5100
Wire Wire Line
	4700 5200 4400 5200
Wire Wire Line
	4700 5300 4400 5300
Wire Wire Line
	4700 5400 4400 5400
Text GLabel 5350 3100 2    50   Input ~ 0
S1
Text GLabel 5350 3200 2    50   Input ~ 0
S2
Text GLabel 5350 3300 2    50   Input ~ 0
S3
Text GLabel 9000 3100 2    50   Input ~ 0
S1
Text GLabel 9000 3200 2    50   Input ~ 0
S2
Text GLabel 9000 3300 2    50   Input ~ 0
S3
Text GLabel 9000 3500 2    50   Input ~ 0
~ENA
Text GLabel 5350 3500 2    50   Input ~ 0
~ENA
Text GLabel 5350 2900 2    50   Input ~ 0
V1
Wire Wire Line
	4200 3800 4200 4100
Wire Wire Line
	7850 3800 7850 4100
$Comp
L 74xx:74HC4051 U2
U 1 1 5BDF1302
P 7850 3200
F 0 "U2" H 8350 3800 50  0000 C CNN
F 1 "74HC4051" H 8200 3700 50  0000 C CNN
F 2 "Package_SO:TSSOP-16_4.4x5mm_P0.65mm" H 7850 2800 50  0001 C CNN
F 3 "http://www.ti.com/lit/ds/symlink/cd74hc4051.pdf" H 7850 2800 50  0001 C CNN
	1    7850 3200
	-1   0    0    -1  
$EndComp
$Comp
L 74xx:74HC4051 U1
U 1 1 5BE02548
P 4200 3200
F 0 "U1" H 4700 3800 50  0000 C CNN
F 1 "74HC4051" H 4550 3700 50  0000 C CNN
F 2 "Package_SO:TSSOP-16_4.4x5mm_P0.65mm" H 4200 2800 50  0001 C CNN
F 3 "http://www.ti.com/lit/ds/symlink/cd74hc4051.pdf" H 4200 2800 50  0001 C CNN
	1    4200 3200
	-1   0    0    -1  
$EndComp
Wire Wire Line
	7750 3800 7850 3800
Connection ~ 7850 3800
Wire Wire Line
	4100 3800 4200 3800
Connection ~ 4200 3800
$Comp
L Device:C C1
U 1 1 5BB423AE
P 9250 1350
F 0 "C1" H 9365 1396 50  0000 L CNN
F 1 "0.1u" H 9365 1305 50  0000 L CNN
F 2 "Capacitor_SMD:C_0805_2012Metric_Pad1.15x1.40mm_HandSolder" H 9288 1200 50  0001 C CNN
F 3 "~" H 9250 1350 50  0001 C CNN
	1    9250 1350
	1    0    0    -1  
$EndComp
$Comp
L Device:C C2
U 1 1 5BB42421
P 9850 1350
F 0 "C2" H 9965 1396 50  0000 L CNN
F 1 "0.1u" H 9965 1305 50  0000 L CNN
F 2 "Capacitor_SMD:C_0805_2012Metric_Pad1.15x1.40mm_HandSolder" H 9888 1200 50  0001 C CNN
F 3 "~" H 9850 1350 50  0001 C CNN
	1    9850 1350
	1    0    0    -1  
$EndComp
Wire Wire Line
	9250 1200 9600 1200
Wire Wire Line
	9250 1500 9600 1500
Wire Wire Line
	9600 1500 9600 1650
Connection ~ 9600 1500
Wire Wire Line
	9600 1500 9850 1500
Wire Wire Line
	9600 1200 9600 1050
Connection ~ 9600 1200
Wire Wire Line
	9600 1200 9850 1200
$Comp
L power:GND #PWR0109
U 1 1 5BB50F66
P 9600 1650
F 0 "#PWR0109" H 9600 1400 50  0001 C CNN
F 1 "GND" H 9600 1500 50  0001 C CNN
F 2 "" H 9600 1650 50  0001 C CNN
F 3 "~" H 9600 1650 50  0001 C CNN
	1    9600 1650
	-1   0    0    -1  
$EndComp
$Comp
L power:+5V #PWR0110
U 1 1 5BB50FA3
P 9600 1050
F 0 "#PWR0110" H 9600 900 50  0001 C CNN
F 1 "+5V" H 9615 1223 50  0000 C CNN
F 2 "" H 9600 1050 50  0001 C CNN
F 3 "" H 9600 1050 50  0001 C CNN
	1    9600 1050
	1    0    0    -1  
$EndComp
Wire Wire Line
	8150 3500 9000 3500
Wire Wire Line
	7850 2400 7850 2700
NoConn ~ 4700 5500
Wire Bus Line
	6950 1850 6950 5150
Wire Bus Line
	7200 3000 7200 5150
Wire Bus Line
	3300 1850 3300 5150
Wire Bus Line
	3550 3000 3550 5150
$EndSCHEMATC
